^D:\REPOS\PROJEKTYPG\SEM2\MKDG\MKDG\MKDG\X64\RELEASE\MAIN.OBJ
/OUT:"D:\REPOS\PROJEKTYPG\SEM2\MKDG\MKDG\X64\RELEASE\MKDG.EXE" /INCREMENTAL:NO /NOLOGO "D:\REPOS\PROJEKTYPG\SEM2\MKDG\RELEASE-1800-X64-DEV\RELEASE-1800-X64\LIB\GDAL_I.LIB" OPENCV_WORLD320.LIB KERNEL32.LIB USER32.LIB GDI32.LIB WINSPOOL.LIB COMDLG32.LIB ADVAPI32.LIB SHELL32.LIB OLE32.LIB OLEAUT32.LIB UUID.LIB ODBC32.LIB ODBCCP32.LIB /MANIFEST /MANIFESTUAC:"level='asInvoker' uiAccess='false'" /manifest:embed /DEBUG /PDB:"D:\REPOS\PROJEKTYPG\SEM2\MKDG\MKDG\X64\RELEASE\MKDG.PDB" /SUBSYSTEM:CONSOLE /LARGEADDRESSAWARE /OPT:REF /OPT:ICF /LTCG:incremental /TLBID:1 /DYNAMICBASE /NXCOMPAT /IMPLIB:"D:\REPOS\PROJEKTYPG\SEM2\MKDG\MKDG\X64\RELEASE\MKDG.LIB" /MACHINE:X64 X64\RELEASE\MAIN.OBJ
^D:\REPOS\PROJEKTYPG\SEM2\MKDG\MKDG\MKDG\X64\RELEASE\MAIN.OBJ|D:\REPOS\PROJEKTYPG\SEM2\MKDG\MKDG\MKDG\X64\RELEASE\MERGEDBANDS.OBJ
/OUT:"D:\REPOS\PROJEKTYPG\SEM2\MKDG\MKDG\X64\RELEASE\MKDG.EXE" /INCREMENTAL:NO /NOLOGO "D:\REPOS\PROJEKTYPG\SEM2\MKDG\RELEASE-1800-X64-DEV\RELEASE-1800-X64\LIB\GDAL_I.LIB" OPENCV_WORLD320.LIB KERNEL32.LIB USER32.LIB GDI32.LIB WINSPOOL.LIB COMDLG32.LIB ADVAPI32.LIB SHELL32.LIB OLE32.LIB OLEAUT32.LIB UUID.LIB ODBC32.LIB ODBCCP32.LIB /MANIFEST /MANIFESTUAC:"level='asInvoker' uiAccess='false'" /manifest:embed /DEBUG /PDB:"D:\REPOS\PROJEKTYPG\SEM2\MKDG\MKDG\X64\RELEASE\MKDG.PDB" /SUBSYSTEM:CONSOLE /LARGEADDRESSAWARE /OPT:REF /OPT:ICF /LTCG:incremental /TLBID:1 /DYNAMICBASE /NXCOMPAT /IMPLIB:"D:\REPOS\PROJEKTYPG\SEM2\MKDG\MKDG\X64\RELEASE\MKDG.LIB" /MACHINE:X64 X64\RELEASE\MAIN.OBJX64\RELEASE\MERGEDBANDS.OBJ
